<?xml version="1.0" encoding="UTF-8"?>
<svg width="43px" height="44px" viewBox="0 0 43 44" version="1.1" xmlns="http://www.w3.org/2000/svg" xmlns:xlink="http://www.w3.org/1999/xlink">
    <!-- Generator: Sketch 55.2 (78181) - https://sketchapp.com -->
    <title>Style2_error</title>
    <desc>Created with Sketch.</desc>
    <g id="Definitive-Spoon" stroke="none" stroke-width="1" fill="none" fill-rule="evenodd">
        <g id="06-Content-related-elements" transform="translate(-200.000000, -2435.000000)">
            <g id="Style2_error" transform="translate(200.000000, 2435.000000)">
                <ellipse id="Oval" fill="#FFFFFF" cx="21.5" cy="22" rx="21.5" ry="22"></ellipse>
                <g id="warning" transform="translate(19.000000, 10.000000)" fill="#A52222" fill-rule="nonzero">
                    <path d="M2.5,0.0845301205 C1.47722222,0.0845301205 0.648148148,0.947566265 0.648148148,2.01224096 L0.648148148,14.4260241 C0.648148148,15.4906988 1.47722222,16.3537349 2.5,16.3537349 C3.52277778,16.3537349 4.35185185,15.4906988 4.35185185,14.4260241 L4.35185185,2.01224096 C4.35185185,0.947566265 3.52277778,0.0845301205 2.5,0.0845301205 Z" id="Path"></path>
                    <ellipse id="Oval" cx="2.5" cy="21.3166265" rx="2.5" ry="2.60240964"></ellipse>
                </g>
            </g>
        </g>
    </g>
</svg>