<?xml version="1.0" encoding="UTF-8"?>
<svg width="91px" height="91px" viewBox="0 0 91 91" version="1.1" xmlns="http://www.w3.org/2000/svg" xmlns:xlink="http://www.w3.org/1999/xlink">
    <!-- Generator: Sketch 55.2 (78181) - https://sketchapp.com -->
    <title>SpoonUI</title>
    <desc>Created with Sketch.</desc>
    <defs>
        <linearGradient x1="50%" y1="0%" x2="50%" y2="100%" id="linearGradient-1">
            <stop stop-color="#356BA7" offset="0%"></stop>
            <stop stop-color="#18396E" offset="100%"></stop>
        </linearGradient>
        <circle id="path-2" cx="30.5" cy="30.5" r="30.5"></circle>
        <filter x="-36.1%" y="-36.1%" width="175.4%" height="175.4%" filterUnits="objectBoundingBox" id="filter-3">
            <feOffset dx="1" dy="1" in="SourceAlpha" result="shadowOffsetOuter1"></feOffset>
            <feGaussianBlur stdDeviation="7.5" in="shadowOffsetOuter1" result="shadowBlurOuter1"></feGaussianBlur>
            <feColorMatrix values="0 0 0 0 0.156862745   0 0 0 0 0.4   0 0 0 0 0.568627451  0 0 0 1 0" type="matrix" in="shadowBlurOuter1"></feColorMatrix>
        </filter>
    </defs>
    <g id="01-Login+DB" stroke="none" stroke-width="1" fill="none" fill-rule="evenodd">
        <g id="01.01_Tilkynna_Login" transform="translate(-775.000000, -338.000000)">
            <g id="SpoonUI" transform="translate(789.000000, 352.000000)">
                <g id="Oval" fill-rule="nonzero">
                    <use fill="black" fill-opacity="1" filter="url(#filter-3)" xlink:href="#path-2"></use>
                    <use fill="url(#linearGradient-1)" xlink:href="#path-2"></use>
                </g>
                <path d="M39.3752642,32.6066128 L39.0163006,32.7078661 L43.9589083,37.5986736 L44.2920134,37.4578333 L39.3752642,32.6066128 Z M26.991569,23.7959182 L25.9655084,22.9022917 L27.6688025,21.0561705 L27.3235796,20.7155486 L45.423282,10 L60.4064478,24.8258889 C60.7949113,26.7504306 61,28.7402569 61,30.7777778 C61,47.4690625 47.3256317,61 30.4574158,61 C30.0279107,61 29.6011496,60.9889028 29.1760589,60.9715486 L21.3304326,53.2083333 L21.7562392,52.8821458 L15.9451546,47.261875 L31.7125251,41.8230556 L11,21.3276667 L23.1895931,23.3993056 L26.991569,23.7959182 Z" id="Combined-Shape" fill="#18396E"></path>
                <g id="Group" transform="translate(11.000000, 9.000000)" fill="#FFFFFF" fill-rule="nonzero">
                    <path d="M19.6532308,14.4386747 L19.6532308,14.4386747 C18.5958662,13.5486747 17.3979933,12.8409639 16.108495,12.3444578 L15.8497525,12.2448193 C14.4941538,11.7228916 12.9976856,12.2219277 12.204602,13.3649398 L1.10576589,8.97072289 L0.109926421,11.5606024 L11.2859398,15.9845783 C11.2442809,17.2628916 12.0036522,18.4845783 13.263893,18.969759 L13.5226355,19.0693976 C14.8121338,19.5659036 16.1751973,19.8442169 17.5559599,19.8928916 C18.8729097,19.9393976 20.0742742,19.1445783 20.5475719,17.9138554 L20.5475719,17.9138554 C21.0208696,16.6831325 20.6617124,15.2874699 19.6532308,14.4386747 Z" id="Path"></path>
                    <path d="M18.9960803,11.793253 L18.9960803,11.793253 C20.3726288,11.6744578 21.7197993,11.3272289 22.9824482,10.7659036 L23.235893,10.653253 C24.5633177,10.0631325 25.2688696,8.65144578 25.0219264,7.28204819 L35.9750769,2.53590361 L34.8489632,0 L23.8202007,4.77975904 C22.9463278,3.84638554 21.5460602,3.51987952 20.3120669,4.06843373 L20.0586221,4.18108434 C18.7959732,4.74240964 17.6355452,5.51012048 16.6246555,6.4526506 C15.660602,7.35168675 15.3727224,8.76373494 15.9076656,9.96879518 L15.9076656,9.96879518 C16.4429699,11.1739759 17.6831037,11.9066265 18.9960803,11.793253 Z" id="Path"></path>
                </g>
                <rect id="Rectangle" fill="#CFB9CC" fill-rule="nonzero" x="22" y="49" width="18" height="4"></rect>
                <rect id="Rectangle" fill="#AC80A5" fill-rule="nonzero" x="31" y="49" width="9" height="4"></rect>
                <g id="Group" transform="translate(25.000000, 17.000000)" fill-rule="nonzero">
                    <ellipse id="Oval" fill="#FFDC00" cx="8.64675377" cy="1.29243701" rx="1.26394127" ry="1.23368987"></ellipse>
                    <ellipse id="Oval" fill="#FFAC00" cx="5.09568068" cy="3.75981675" rx="1.26394127" ry="1.23368987"></ellipse>
                    <ellipse id="Oval" fill="#FFAC00" cx="9.91069504" cy="7.14247689" rx="1.26394127" ry="1.23368987"></ellipse>
                    <ellipse id="Oval" fill="#FFDC00" cx="12.661272" cy="11.6472073" rx="1.26394127" ry="1.23368987"></ellipse>
                    <ellipse id="Oval" fill="#FFDC00" cx="1.28580056" cy="8.37616676" rx="1.26394127" ry="1.23368987"></ellipse>
                    <ellipse id="Oval" fill="#FFAC00" cx="6.54018499" cy="13.7033571" rx="1.26394127" ry="1.23368987"></ellipse>
                </g>
                <path d="M36.2290323,51 L24.7709677,51 C17.7178129,51 12,45.2633692 12,38.1870017 L12,32 L49,32 L49,38.1870017 C49,45.2633692 43.2821871,51 36.2290323,51 Z" id="Path" fill="#AC80A5" fill-rule="nonzero"></path>
                <path d="M30,32 L30,51 L35.9200728,51 C43.1438599,51 49,45.2634889 49,38.1870017 L49,32 L30,32 L30,32 Z" id="Path" fill="#89477E" fill-rule="nonzero"></path>
            </g>
        </g>
    </g>
</svg>