<?xml version="1.0" encoding="UTF-8"?>
<svg width="80px" height="30px" viewBox="0 0 80 30" version="1.1" xmlns="http://www.w3.org/2000/svg" xmlns:xlink="http://www.w3.org/1999/xlink">
    <!-- Generator: Sketch 55.2 (78181) - https://sketchapp.com -->
    <title>Spoonui</title>
    <desc>Created with Sketch.</desc>
    <g id="01-Login+DB" stroke="none" stroke-width="1" fill="none" fill-rule="evenodd">
        <g id="01.01_Tilkynna_Login" transform="translate(-850.000000, -422.000000)" fill="#FFFFFF" fill-rule="nonzero">
            <path d="M854.511719,445.21582 C853.457026,445.21582 852.546391,444.920413 851.779785,444.32959 C851.01318,443.738767 850.488283,442.979497 850.205078,442.051758 C850.068359,441.622068 850,441.177737 850,440.71875 C850,440.201169 850.08789,439.668948 850.263672,439.12207 C850.781253,438.340816 851.533198,437.950195 852.519531,437.950195 C852.832033,437.950195 853.149412,437.99414 853.47168,438.082031 C853.090818,438.658206 852.900391,439.224607 852.900391,439.78125 C852.900391,439.820313 852.907715,439.998534 852.922363,440.315918 C852.937012,440.633302 853.124998,440.989744 853.486328,441.385254 C853.847658,441.780764 854.301755,441.978516 854.848633,441.978516 C855.776372,441.978516 856.523435,441.77344 857.089844,441.363281 C857.734378,440.894529 858.056641,440.303715 858.056641,439.59082 C858.056641,439.053708 857.817385,438.482425 857.338867,437.876953 C856.860349,437.271481 856.015631,436.714846 854.804688,436.207031 C853.984371,435.914061 853.247074,435.508792 852.592773,434.991211 C851.889645,434.434568 851.538086,433.594732 851.538086,432.47168 C851.538086,431.416987 852.011714,429.976572 852.958984,428.150391 C853.417971,427.281246 854.038082,426.448734 854.819336,425.652832 C855.60059,424.85693 856.445308,424.197757 857.353516,423.675293 C858.261723,423.152829 859.12109,422.891602 859.931641,422.891602 C860.957036,422.891602 861.75781,423.116209 862.333984,423.56543 C863.281255,424.317387 863.754883,425.572257 863.754883,427.330078 L863.740234,427.930664 C863.339842,429.014654 862.75391,429.781248 861.982422,430.230469 C861.337887,430.601564 860.751956,430.787109 860.224609,430.787109 C860.107421,430.787109 859.995118,430.777344 859.887695,430.757812 C860.10254,430.113278 860.27832,429.434574 860.415039,428.72168 C860.57129,427.891602 860.649414,427.139652 860.649414,426.46582 C860.649414,425.186517 860.346683,424.546875 859.741211,424.546875 C859.262693,424.546875 858.625492,424.949703 857.82959,425.755371 C857.033687,426.561039 856.289066,427.652337 855.595703,429.029297 C854.921872,430.318366 854.584961,431.431636 854.584961,432.369141 C854.584961,432.4375 854.597168,432.730466 854.621582,433.248047 C854.645996,433.765628 855.312493,434.395504 856.621094,435.137695 C858.056648,435.938481 859.082028,436.763668 859.697266,437.613281 C860.205081,438.31641 860.458984,439.092769 860.458984,439.942383 C860.458984,441.036138 860.126956,442.022457 859.462891,442.901367 C858.925779,443.604496 858.229985,444.166014 857.375488,444.585938 C856.520992,445.005861 855.566412,445.21582 854.511719,445.21582 Z M865.820312,439.898438 C866.50391,439.478514 867.626945,439.268555 869.189453,439.268555 L869.570312,439.268555 C869.677735,438.877928 869.755859,438.467776 869.804688,438.038086 C869.892579,437.247066 869.936523,436.578128 869.936523,436.03125 C869.936523,434.771478 869.663089,434.141602 869.116211,434.141602 C868.989257,434.141602 868.85254,434.180664 868.706055,434.258789 C867.592768,434.893558 866.630863,436.773422 865.820312,439.898438 Z M862.700195,451.353516 C861.518549,451.353516 860.927734,450.323252 860.927734,448.262695 C860.927734,447.10058 861.108397,445.694344 861.469727,444.043945 C861.469727,444.014648 861.645506,443.013682 861.99707,441.041016 C862.299806,439.195303 862.631834,437.374032 862.993164,435.577148 C863.139649,434.795895 863.212891,434.156252 863.212891,433.658203 C863.212891,433.267576 863.168946,432.959962 863.081055,432.735352 C863.286134,432.598632 863.47412,432.50586 863.64502,432.457031 C863.815919,432.408203 864.038085,432.383789 864.311523,432.383789 C865.307622,432.383789 865.805664,432.984369 865.805664,434.185547 C865.805664,434.644534 865.747071,435.108396 865.629883,435.577148 C865.307616,437.012702 865.039064,438.453118 864.824219,439.898438 C866.035162,434.888647 867.573233,432.383789 869.438477,432.383789 C870.678717,432.383789 871.508787,433.038079 871.928711,434.34668 C872.13379,435.010746 872.236328,435.782222 872.236328,436.661133 C872.236328,437.540043 872.148438,438.394527 871.972656,439.224609 C872.968755,438.990233 873.847652,437.774425 874.609375,435.577148 C875.11719,435.577148 875.371094,435.772459 875.371094,436.163086 C875.371094,436.250977 875.361328,436.34375 875.341797,436.441406 C874.531246,438.746105 873.305672,440.035155 871.665039,440.308594 C871.430663,440.982425 871.113283,441.597653 870.712891,442.154297 C869.83398,443.375006 868.666999,443.985352 867.211914,443.985352 C866.782224,443.985352 866.306155,443.821779 865.783691,443.494629 C865.261228,443.167479 864.843752,442.627933 864.53125,441.875977 C864.433593,442.579105 864.326172,443.282223 864.208984,443.985352 C863.818357,446.20216 863.623047,447.911127 863.623047,449.112305 C863.623047,450.000981 863.745116,450.611326 863.989258,450.943359 C863.637694,451.216798 863.20801,451.353516 862.700195,451.353516 Z M867.226562,442.359375 C867.978519,442.222656 868.63281,441.553717 869.189453,440.352539 C867.109365,440.391602 866.069336,440.72363 866.069336,441.348633 C866.069336,441.465821 866.108398,441.597656 866.186523,441.744141 C866.430665,442.154299 866.743162,442.359375 867.124023,442.359375 L867.226562,442.359375 Z M877.084961,441.260742 C877.739261,441.260742 878.281248,440.928714 878.710938,440.264648 C877.597651,440.088866 876.782229,439.488286 876.264648,438.462891 C876.235351,438.775392 876.220703,439.068358 876.220703,439.341797 C876.220703,440.6211 876.508786,441.260742 877.084961,441.260742 Z M879.179688,439.195312 C879.394532,438.472653 879.501953,437.72559 879.501953,436.954102 C879.501953,436.172848 879.411622,435.50635 879.230957,434.95459 C879.050292,434.402829 878.79883,434.126953 878.476562,434.126953 C878.193358,434.126953 877.929689,434.354002 877.685547,434.808105 C877.441405,435.262209 877.307129,435.662596 877.282715,436.009277 C877.258301,436.355959 877.246094,436.573242 877.246094,436.661133 C877.246094,438.018561 877.890619,438.86328 879.179688,439.195312 Z M876.411133,443.985352 C875.278315,443.985352 874.482424,443.384772 874.023438,442.183594 C873.730467,441.441403 873.583984,440.630864 873.583984,439.751953 C873.583984,439.537108 873.59375,439.332032 873.613281,439.136719 C873.808595,437.154287 874.433588,435.484382 875.488281,434.126953 C876.396489,432.964838 877.373042,432.383789 878.417969,432.383789 C878.964846,432.383789 879.421385,432.586424 879.787598,432.991699 C880.15381,433.396975 880.429687,433.931637 880.615234,434.595703 C880.800782,435.259769 880.898437,435.992183 880.908203,436.792969 C880.908203,437.593754 880.825196,438.394527 880.65918,439.195312 C881.625981,438.912108 882.475582,437.706065 883.208008,435.577148 C883.715823,435.577148 883.969727,435.767576 883.969727,436.148438 C883.969727,436.236329 883.955078,436.333984 883.925781,436.441406 C883.134762,438.707043 881.94825,439.991209 880.366211,440.293945 C880.1416,440.987308 879.843752,441.612302 879.472656,442.168945 C878.662105,443.379889 877.641608,443.985352 876.411133,443.985352 Z M885.698242,441.260742 C886.352542,441.260742 886.894529,440.928714 887.324219,440.264648 C886.210932,440.088866 885.39551,439.488286 884.87793,438.462891 C884.848633,438.775392 884.833984,439.068358 884.833984,439.341797 C884.833984,440.6211 885.122067,441.260742 885.698242,441.260742 Z M887.792969,439.195312 C888.007814,438.472653 888.115234,437.72559 888.115234,436.954102 C888.115234,436.172848 888.024903,435.50635 887.844238,434.95459 C887.663573,434.402829 887.412111,434.126953 887.089844,434.126953 C886.806639,434.126953 886.54297,434.354002 886.298828,434.808105 C886.054686,435.262209 885.92041,435.662596 885.895996,436.009277 C885.871582,436.355959 885.859375,436.573242 885.859375,436.661133 C885.859375,438.018561 886.5039,438.86328 887.792969,439.195312 Z M885.024414,443.985352 C883.891596,443.985352 883.095705,443.384772 882.636719,442.183594 C882.343749,441.441403 882.197266,440.630864 882.197266,439.751953 C882.197266,439.537108 882.207031,439.332032 882.226562,439.136719 C882.421876,437.154287 883.04687,435.484382 884.101562,434.126953 C885.00977,432.964838 885.986323,432.383789 887.03125,432.383789 C887.578128,432.383789 888.034666,432.586424 888.400879,432.991699 C888.767092,433.396975 889.042968,433.931637 889.228516,434.595703 C889.414063,435.259769 889.511719,435.992183 889.521484,436.792969 C889.521484,437.593754 889.438477,438.394527 889.272461,439.195312 C890.239263,438.912108 891.088864,437.706065 891.821289,435.577148 C892.329104,435.577148 892.583008,435.767576 892.583008,436.148438 C892.583008,436.236329 892.56836,436.333984 892.539062,436.441406 C891.748043,438.707043 890.561531,439.991209 888.979492,440.293945 C888.754882,440.987308 888.457033,441.612302 888.085938,442.168945 C887.275387,443.379889 886.254889,443.985352 885.024414,443.985352 Z M899.306641,443.985352 C898.505855,443.985352 897.919924,443.59473 897.548828,442.813477 C897.285155,442.28613 897.15332,441.558598 897.15332,440.630859 C897.15332,439.332025 897.421872,437.647471 897.958984,435.577148 L897.958984,435.445312 C897.958984,435.191405 897.932129,434.998536 897.878418,434.866699 C897.824707,434.734863 897.714845,434.668945 897.548828,434.668945 C897.285155,434.668945 896.931155,434.991208 896.486816,435.635742 C896.042478,436.280277 895.593264,437.054195 895.13916,437.95752 C894.685056,438.860844 894.296877,439.739742 893.974609,440.594238 C893.652342,441.448735 893.47168,442.115232 893.432617,442.59375 C893.432617,442.974611 893.315431,443.301756 893.081055,443.575195 C892.846679,443.848634 892.519533,443.985352 892.099609,443.985352 C891.679685,443.985352 891.376954,443.877931 891.191406,443.663086 C890.917967,443.370116 890.78125,442.857426 890.78125,442.125 L890.795898,441.65625 C890.874024,439.996085 891.215817,437.969739 891.821289,435.577148 C892.026368,434.649409 892.128906,433.916995 892.128906,433.379883 C892.128906,433.125975 892.104492,432.916016 892.055664,432.75 C892.377931,432.505858 892.788083,432.383789 893.286133,432.383789 C893.920902,432.383789 894.331054,432.535155 894.516602,432.837891 C894.653321,433.062501 894.72168,433.331053 894.72168,433.643555 C894.72168,434.122073 894.599611,434.766598 894.355469,435.577148 C893.779294,437.461923 893.378907,439.136711 893.154297,440.601562 C893.828128,438.785147 894.604488,437.110359 895.483398,435.577148 C896.655279,433.448232 897.82226,432.383789 898.984375,432.383789 C899.638675,432.383789 900.10742,432.696286 900.390625,433.321289 C900.546876,433.672853 900.625,434.058592 900.625,434.478516 C900.625,434.820314 900.576172,435.186521 900.478516,435.577148 C900.195311,436.534184 899.965821,437.505854 899.790039,438.492188 C899.624023,439.390629 899.541016,440.166989 899.541016,440.821289 C899.541016,440.889649 899.545898,441.114256 899.555664,441.495117 C899.56543,441.875978 899.726561,442.066406 900.039062,442.066406 C900.419924,442.066406 900.856931,441.707523 901.350098,440.989746 C901.843264,440.271969 902.321775,439.415044 902.785645,438.418945 C903.249514,437.422847 903.627928,436.47559 903.920898,435.577148 C904.145509,435.577148 904.345702,435.635742 904.521484,435.75293 C904.638672,435.840821 904.697266,435.977538 904.697266,436.163086 C904.697266,436.250977 904.6875,436.34375 904.667969,436.441406 C903.876949,438.37501 903.10059,439.981439 902.338867,441.260742 C901.264643,443.077158 900.253911,443.985352 899.306641,443.985352 Z M918.24707,443.985352 C917.475582,443.985352 916.943361,443.599613 916.650391,442.828125 C916.416014,442.242185 916.298828,441.529301 916.298828,440.689453 C916.083983,441.294925 915.844728,441.846677 915.581055,442.344727 C915.317381,442.842776 915.021974,443.240721 914.694824,443.538574 C914.367674,443.836427 913.999025,443.985352 913.588867,443.985352 C912.866207,443.985352 912.299807,443.794924 911.889648,443.414062 C911.157223,442.749997 910.791016,441.651375 910.791016,440.118164 L910.791016,439.898438 C910.859375,438.208976 911.040038,436.768561 911.333008,435.577148 C911.499024,434.727535 911.669921,433.819341 911.845703,432.852539 C912.099611,432.540037 912.514646,432.383789 913.09082,432.383789 C913.754886,432.383789 914.145507,432.593748 914.262695,433.013672 C914.165039,433.677738 914.003907,434.532221 913.779297,435.577148 L913.632812,436.397461 C913.398436,437.61817 913.28125,438.760737 913.28125,439.825195 C913.28125,441.084967 913.544919,441.714844 914.072266,441.714844 C914.658206,441.714844 915.263669,440.831064 915.888672,439.063477 C916.308596,437.872064 916.645507,436.709967 916.899414,435.577148 C917.026368,435.020505 917.180175,434.500491 917.36084,434.01709 C917.541505,433.533689 917.805174,433.140627 918.151855,432.837891 C918.498537,432.535155 918.989255,432.383789 919.624023,432.383789 C920.131838,432.383789 920.478515,432.505858 920.664062,432.75 C920.156247,433.33594 919.64844,434.62499 919.140625,436.617188 C918.710935,438.296883 918.496094,439.693354 918.496094,440.806641 C918.496094,440.962891 918.508301,441.211912 918.532715,441.553711 C918.557129,441.89551 918.706053,442.066406 918.979492,442.066406 C919.360353,442.066406 919.799802,441.707523 920.297852,440.989746 C920.795901,440.271969 921.274412,439.415044 921.733398,438.418945 C922.192385,437.422847 922.568358,436.47559 922.861328,435.577148 C923.388675,435.577148 923.652344,435.777342 923.652344,436.177734 C923.652344,436.25586 923.642578,436.34375 923.623047,436.441406 C922.822262,438.394541 922.045902,440.00097 921.293945,441.260742 C920.20019,443.077158 919.184575,443.985352 918.24707,443.985352 Z M924.223633,443.985352 C923.442379,443.985352 922.905275,443.59473 922.612305,442.813477 C922.377929,442.198239 922.260742,441.348638 922.260742,440.264648 C922.260742,438.83886 922.460935,437.276376 922.861328,435.577148 C922.988282,435.020505 923.14453,434.500491 923.330078,434.01709 C923.515626,433.533689 923.779295,433.140627 924.121094,432.837891 C924.462892,432.535155 924.951169,432.383789 925.585938,432.383789 C926.093753,432.383789 926.445312,432.505858 926.640625,432.75 C926.123044,433.345706 925.610354,434.634756 925.102539,436.617188 C924.672849,438.296883 924.458008,439.693354 924.458008,440.806641 C924.458008,440.962891 924.472656,441.211912 924.501953,441.553711 C924.53125,441.89551 924.682616,442.066406 924.956055,442.066406 C925.32715,442.066406 925.761716,441.707523 926.259766,440.989746 C926.757815,440.271969 927.236326,439.415044 927.695312,438.418945 C928.154299,437.422847 928.535155,436.47559 928.837891,435.577148 C929.062501,435.577148 929.262694,435.635742 929.438477,435.75293 C929.555665,435.840821 929.614258,435.977538 929.614258,436.163086 C929.614258,436.250977 929.604492,436.34375 929.584961,436.441406 C928.784176,438.394541 928.007816,440.00097 927.255859,441.260742 C926.162104,443.077158 925.151372,443.985352 924.223633,443.985352 Z M925.834961,430.962891 C924.868159,430.962891 924.350586,430.577152 924.282227,429.805664 C924.291992,429.473631 924.404296,429.166017 924.619141,428.882812 C924.833985,428.599608 925.083006,428.365235 925.366211,428.179688 C925.649415,427.99414 925.95703,427.901367 926.289062,427.901367 C926.435548,427.901367 926.66992,427.942871 926.992188,428.025879 C927.314455,428.108887 927.514648,428.448239 927.592773,429.043945 L927.592773,429.087891 C927.592773,429.908207 927.329104,430.455077 926.801758,430.728516 C926.489256,430.884766 926.166994,430.962891 925.834961,430.962891 Z" id="Spoonui"></path>
        </g>
    </g>
</svg>