<?xml version="1.0" encoding="UTF-8"?>
<svg width="43px" height="44px" viewBox="0 0 43 44" version="1.1" xmlns="http://www.w3.org/2000/svg" xmlns:xlink="http://www.w3.org/1999/xlink">
    <!-- Generator: Sketch 55.2 (78181) - https://sketchapp.com -->
    <title>Style2_success</title>
    <desc>Created with Sketch.</desc>
    <g id="Definitive-Spoon" stroke="none" stroke-width="1" fill="none" fill-rule="evenodd">
        <g id="06-Content-related-elements" transform="translate(-201.000000, -2338.000000)">
            <g id="Style2_success" transform="translate(201.000000, 2338.000000)">
                <ellipse id="Oval" fill="#FFFFFF" cx="21.5" cy="22" rx="21.5" ry="22"></ellipse>
                <g id="icons/general/white/tick" transform="translate(6.000000, 7.000000)" fill="#57A75B" fill-rule="nonzero" stroke="#57A75B">
                    <g id="tick" transform="translate(15.382149, 14.882149) rotate(45.000000) translate(-15.382149, -14.882149) translate(4.882149, 4.882149)">
                        <path d="M18.1549941,4.55367819 C17.856507,4.25516015 17.3642293,4.26350384 17.0553877,4.57231559 L7.58212726,14.0456656 L4.06214039,10.5256787 C3.76365323,10.2271607 3.27137502,10.2355347 2.96253393,10.5443161 C2.6537232,10.853097 2.64537951,11.3453747 2.94389704,11.6438922 L7.00436948,15.7043029 C7.30276603,16.0027921 7.7954118,15.9942296 8.10397594,15.6856655 L18.1363567,5.65328466 C18.4451675,5.34450379 18.4534813,4.85219624 18.1549941,4.55367819 Z" id="Path" transform="translate(10.549440, 10.128940) rotate(-45.000000) translate(-10.549440, -10.128940) "></path>
                    </g>
                </g>
            </g>
        </g>
    </g>
</svg>