<?xml version="1.0" encoding="UTF-8"?>
<svg width="43px" height="44px" viewBox="0 0 43 44" version="1.1" xmlns="http://www.w3.org/2000/svg" xmlns:xlink="http://www.w3.org/1999/xlink">
    <!-- Generator: sketchtool 55.2 (78181) - https://sketchapp.com -->
    <title>366C5384-E9F0-4CE6-94BE-E38B53B550A5</title>
    <desc>Created with sketchtool.</desc>
    <g id="Definitive-Spoon" stroke="none" stroke-width="1" fill="none" fill-rule="evenodd">
        <g id="06-Content-related-elements" transform="translate(-199.000000, -2065.000000)">
            <g id="Group-18" transform="translate(199.000000, 2065.000000)">
                <g id="Group-3" fill="#F9E7D2">
                    <ellipse id="Oval" cx="21.5" cy="22" rx="21.5" ry="22"></ellipse>
                </g>
                <g id="bell" transform="translate(14.000000, 10.000000)" fill="#E1861C" fill-rule="nonzero" stroke="#E1861C" stroke-width="0.5">
                    <path d="M17.4869712,15.9091929 C15.5143439,14.7924786 14.0727312,12.9620507 13.4754082,10.8152085 L12.5027033,7.26819759 C11.7844543,4.63586617 9.38529813,2.77176579 6.59413731,2.67734034 L6.23008081,1.35253382 C5.96265545,0.379239334 4.9369769,-0.19818108 3.93906388,0.0626468855 C2.94151612,0.323474851 2.34949046,1.32367173 2.61673316,2.29678806 L2.98024165,3.62088194 C0.616157679,5.06755071 -0.504690672,7.84846854 0.216480986,10.4779494 L1.18918591,14.0249603 C1.3842749,14.73422 1.48309805,15.4655716 1.48309805,16.199952 C1.48273274,17.6710288 1.0867094,19.1160942 0.334666883,20.3911937 C0.121859149,20.7394988 0.150355294,21.1797351 0.406455283,21.4989999 C0.599352261,21.7464657 0.899657784,21.8918453 1.21823007,21.8920235 C1.30810252,21.8918453 1.39760962,21.880443 1.48419408,21.8576383 L6.86284135,20.4524811 C7.27585277,21.3888963 8.21933092,21.9967822 9.26455487,22 C10.012944,22.0010581 10.7258956,21.6894542 11.2229341,21.1437465 C11.7199726,20.598217 11.9536045,19.8709631 11.8644627,19.1463815 L17.2432927,17.7412243 C17.6933856,17.6232816 18.0044686,17.2234879 17.9999514,16.7691769 C18.0008152,16.4132109 17.8046302,16.0843253 17.4869712,15.9091929 L17.4869712,15.9091929 Z M3.45134138,1.27734982 C3.65191038,0.938487239 4.02272561,0.729860533 4.4240463,0.730034127 C4.93259288,0.728613394 5.37811915,1.06177477 5.50890915,1.54120652 L5.82492406,2.69301852 C5.78948657,2.69604725 5.75459705,2.7028174 5.71915956,2.70655877 C5.60133893,2.71813929 5.48443167,2.73292663 5.36825513,2.75074275 C5.30651346,2.76018528 5.24477179,2.76998415 5.18339548,2.78138647 C5.05388416,2.80561639 4.92583419,2.83323138 4.79924556,2.86387511 C4.77111473,2.8708234 4.74280129,2.87474293 4.71503581,2.88204757 C4.68727034,2.88935217 4.66973425,2.89665676 4.64690077,2.90289242 C4.50405473,2.94119704 4.36321801,2.98449021 4.22457329,3.03241556 C4.18712645,3.04506501 4.15205427,3.05824896 4.11570341,3.07143287 C3.97139603,3.12399043 3.82928062,3.18135835 3.68953992,3.24371474 C3.67876252,3.24834695 3.6672545,3.25208833 3.6562944,3.25707684 L3.3406448,2.10775906 C3.26209775,1.82768969 3.30191931,1.52855706 3.45134138,1.27734982 Z M11.1326964,19.3386175 C11.1847566,20.2030555 10.606431,20.9841141 9.74862396,21.2078845 C8.89081695,21.4312986 7.99008308,21.0366716 7.59150237,20.2629177 L11.1326964,19.3386175 Z M17.0461943,17.0373095 L1.28892239,21.153189 C1.18114853,21.1827638 1.06570261,21.1441028 0.999028955,21.0560912 C0.928884599,20.9702175 0.921395239,20.8506714 0.980396837,20.7573149 C1.79911301,19.3710428 2.23039119,17.7996612 2.23130451,16.199952 C2.23148717,15.4016117 2.12407867,14.6068347 1.91145355,13.8359313 L0.938748626,10.2892767 C0.276943971,7.88089389 1.36637345,5.34031549 3.58943808,4.10868727 L3.59601411,4.10583669 C3.91020238,3.93765254 4.24028273,3.79939947 4.58150579,3.69285906 C4.68927965,3.65811762 4.79358286,3.61660607 4.90391408,3.58845663 C5.28185332,3.49082431 5.66910862,3.4314966 6.05965196,3.41118625 C6.14221771,3.40673223 6.22496612,3.40192187 6.30753187,3.40120922 L6.36525483,3.40120922 C8.90342105,3.40174372 11.1242936,5.06630357 11.7784263,7.45829558 L12.7511312,11.0056628 C13.4012452,13.3390398 14.9687158,15.3282093 17.1132334,16.541487 C17.1992698,16.5863836 17.2526087,16.6740389 17.2518439,16.7691769 C17.2558967,16.8942461 17.170591,17.0055968 17.0461943,17.0369532 L17.0461943,17.0373095 Z" id="Shape"></path>
                </g>
            </g>
        </g>
    </g>
</svg>